{
  "fields": [
    {
      "type": "list",
      "default": null,
      "icon": "bullet-list",
      "key": "designs",
      "label": "Designs",
      "localised": false,
      "options": {
        "limitToModel": false,
        "model": []
      },
      "tab": "Data",
      "validation": {
        "enforceMinMax": false,
        "max": null,
        "min": null,
        "unit": "list items"
      },
      "value": null,
      "version": 1,
      "visibility": {
        "hidden": false,
        "showByValue": {
          "field": null
        }
      }
    }
  ],
  "tabs": [
    {
      "label": "Data",
      "groupAs": null
    }
  ]
}